[ 
    {"Key":"ST_POINTS","Desc":"Points"},

    {"Key":"ST_GOALS","Desc":"Goals", "HideTeam" : true , "HidePlayer" : true},
    {"Key":"ST_SHOTS","Desc":"Shots", "HideTeam" : true , "HidePlayer" : true},
    {"Key":"ST_EFFICIENCY","Desc":"% Efficiency", "HideTeam" : true , "HidePlayer" : true},

    {   "Desc" : "Shots",
        "Multikey" : ["ST_GOALS", "ST_SHOTS", "ST_EFFICIENCY"],
            "Layout" : "@1/@2 @3%"},

    {"Key":"ST_1PT_ALL_SHOTS","Desc":"1 Pt - All Shots", "HideTeam" : true , "HidePlayer" : true},
    {"Key":"ST_1PT_ALL_GOALS","Desc":"1 Pt - All Goals", "HideTeam" : true , "HidePlayer" : true},
    {"Key":"ST_1PT_ALL_EFFICIENCY","Desc":"1 Pt - All %", "HideTeam" : true , "HidePlayer" : true},

    {   "Desc" : "1 Pt-All",
        "Multikey" : ["ST_1PT_ALL_GOALS", "ST_1PT_ALL_SHOTS", "ST_1PT_ALL_EFFICIENCY"],
            "Layout" : "@1/@2 @3%"},


    {"Key":"ST_1PT_OTHER_GOALS","Desc":"1Pt - Other Goals", "HideTeam" : true , "HidePlayer" : true},
    {"Key":"ST_1PT_OTHER_SHOTS","Desc":"1Pt - Other Shots", "HideTeam" : true , "HidePlayer" : true},
    {"Key":"ST_1PT_OTHER_EFFICIENCY","Desc":"1Pt - Other %", "HideTeam" : true , "HidePlayer" : true},

    {   "Desc" : "1Pt-Other",
        "Multikey" : ["ST_1PT_OTHER_GOALS", "ST_1PT_OTHER_SHOTS", "ST_1PT_OTHER_EFFICIENCY"],
        "Layout" : "@1/@2 @3%",
        "HideTeam" : true , "HidePlayer" : true},


    {"Key":"ST_1PT_SPIN_GOALS","Desc":"1Pt - Spin Goals", "HideTeam" : true , "HidePlayer" : true},
    {"Key":"ST_1PT_SPIN_SHOTS","Desc":"1Pt - Spin Shots", "HideTeam" : true , "HidePlayer" : true},
    {"Key":"ST_1PT_SPIN_EFFICIENCY","Desc":"1Pt - Spin %", "HideTeam" : true , "HidePlayer" : true},

    {   "Desc" : "1Pt-Spin",
        "Multikey" : ["ST_1PT_SPIN_GOALS", "ST_1PT_SPIN_SHOTS", "ST_1PT_SPIN_EFFICIENCY"],
            "Layout" : "@1/@2 @3%"},


    {"Key":"ST_SPIN_GOALS","Desc":"Spin Goals", "HideTeam" : true , "HidePlayer" : true},
    {"Key":"ST_SPIN_SHOTS","Desc":"Spin Shots", "HideTeam" : true , "HidePlayer" : true},
    {"Key":"ST_SPIN_EFFICIENCY","Desc":"Spin %", "HideTeam" : true , "HidePlayer" : true},

    {   "Desc" : "Spin",
        "Multikey" : ["ST_SPIN_GOALS", "ST_SPIN_SHOTS", "ST_SPIN_EFFICIENCY"],
            "Layout" : "@1/@2 @3%"},

    {"Key":"ST_IN_FLIGHT_GOALS","Desc":"In-Flight Goals", "HideTeam" : true , "HidePlayer" : true},
    {"Key":"ST_IN_FLIGHT_SHOTS","Desc":"In-Flight Shots", "HideTeam" : true , "HidePlayer" : true},
    {"Key":"ST_IN_FLIGHT_EFFICIENCY","Desc":"In-Flight %", "HideTeam" : true , "HidePlayer" : true},
    
    {   "Desc" : "In-Flight",
        "Multikey" : ["ST_IN_FLIGHT_GOALS", "ST_IN_FLIGHT_SHOTS", "ST_IN_FLIGHT_EFFICIENCY"],
            "Layout" : "@1/@2 @3%"},

    {"Key":"ST_SPECIALIST_GOALS","Desc":"Specialist Goals", "HideTeam" : true , "HidePlayer" : true},
    {"Key":"ST_SPECIALIST_SHOTS","Desc":"Specialist Shots", "HideTeam" : true , "HidePlayer" : true},
    {"Key":"ST_SPECIALIST_EFFICIENCY","Desc":"Specialist %", "HideTeam" : true , "HidePlayer" : true},
    
    {   "Desc" : "Specialist",
        "Multikey" : ["ST_SPECIALIST_GOALS", "ST_SPECIALIST_SHOTS", "ST_SPECIALIST_EFFICIENCY"],
            "Layout" : "@1/@2 @3%"},


    {"Key":"ST_DIRECT_GOALS","Desc":"Direct Goal", "HideTeam" : true , "HidePlayer" : true},
    {"Key":"ST_DIRECT_SHOTS","Desc":"Direct Shots", "HideTeam" : true , "HidePlayer" : true},
    {"Key":"ST_DIRECT_EFFICIENCY","Desc":"Direct %", "HideTeam" : true , "HidePlayer" : true},

    {   "Desc" : "Direct Shots",
        "Multikey" : ["ST_DIRECT_GOALS", "ST_DIRECT_SHOTS", "ST_DIRECT_EFFICIENCY"],
            "Layout" : "@1/@2 @3%"},

    {"Key":"ST_P6M_GOALS","Desc":"Penalty 6 metres Goals", "HideTeam" : true , "HidePlayer" : true},
    {"Key":"ST_P6M_SHOTS","Desc":"Penalty 6 metres Shots", "HideTeam" : true , "HidePlayer" : true},
    {"Key":"ST_P6M_EFFICIENCY","Desc":"Penalty 6 metres %", "HideTeam" : true , "HidePlayer" : true},
    
    {   "Desc" : "Penalty 6m",
        "Multikey" : ["ST_P6M_GOALS", "ST_P6M_SHOTS", "ST_P6M_EFFICIENCY"],
            "Layout" : "@1/@2 @3%"},

    {"Key":"ST_SUSPENSION","Desc":"Suspension"},
    
    {"Key":"ST_DISQUALIFICATION","Desc":"Discualification"},
    
    {"Key":"ST_DISQ_REPORT","Desc":"Disqualification with report"},
    
    {"Key":"ST_GK_SAVES","Desc":"Saves"},
    {"Key":"ST_GK_SHOTS","Desc":"Shots"},
    {"Key":"ST_GK_SAVES_EFFICIENCY","Desc":"Saves Efficiency"},
    
    {   "Desc" : "Saves",
        "Multikey" : ["ST_GK_SAVES", "ST_GK_SHOTS", "ST_GK_SAVES_EFFICIENCY"],
            "Layout" : "@1/@2 @3%"},



    {"Key":"ST_GK_1PT_ALL_SAVES","Desc":"Saves 1Pt-All"},
    {"Key":"ST_GK_1PT_ALL_SHOTS","Desc":"Shots 1Pt-All"},

    {   "Desc" : "Saves 1-Pt-All",
        "Multikey" : ["ST_GK_1PT_ALL_SAVES", "ST_GK_1PT_ALL_SHOTS"],
            "Layout" : "@1/@2"},


    {"Key":"ST_GK_1PT_OTHER_SAVES","Desc":"Saves 1Pt-Other"},
    {"Key":"ST_GK_1PT_OTHER_SHOTS","Desc":"Shots 1Pt-Other"},

    {   "Desc" : "Saves 1-Pt-All",
        "Multikey" : ["ST_GK_1PT_OTHER_SAVES", "ST_GK_1PT_OTHER_SHOTS"],
            "Layout" : "@1/@2"},


    {"Key":"ST_GK_1PT_SPIN_SAVES","Desc":"Saves 1Pt-Spin"},
    {"Key":"ST_GK_1PT_SPIN_SHOTS","Desc":"Shots 1Pt-Spin"},
    
    {   "Desc" : "Saves 1Pt-Spin",
        "Multikey" : ["ST_GK_1PT_SPIN_SAVES", "ST_GK_1PT_SPIN_SHOTS"],
            "Layout" : "@1/@2"},


    {"Key":"ST_GK_SPIN_SAVES","Desc":"Saves Spin"},
    {"Key":"ST_GK_SPIN_SHOTS","Desc":"Shots Spin"},

    {   "Desc" : "Saves Spin",
        "Multikey" : ["ST_GK_SPIN_SAVES", "ST_GK_SPIN_SHOTS"],
            "Layout" : "@1/@2"},



    {"Key":"ST_GK_INFLIGHT_SAVES","Desc":"Saves In-Flight"},
    {"Key":"ST_GK_INFLIGHT_SHOTS","Desc":"Shots In-Flight"},
    
    {   "Desc" : "Saves In-Flight",
        "Multikey" : ["ST_GK_INFLIGHT_SAVES", "ST_GK_INFLIGHT_SHOTS"],
            "Layout" : "@1/@2"},

    {"Key":"ST_GK_SPECIALIST_SAVES","Desc":"Saves Specialist"},
    {"Key":"ST_GK_SPECIALIST_SHOTS","Desc":"Shots Specialist"},

    {   "Desc" : "Saves Specialist",
        "Multikey" : ["ST_GK_SPECIALIST_SAVES", "ST_GK_SPECIALIST_SHOTS"],
            "Layout" : "@1/@2"},

    
    {"Key":"ST_GK_DIRECT_GOAL_SAVES","Desc":"Saves Direct Goal"},
    {"Key":"ST_GK_DIRECT_GOAL_SHOTS","Desc":"Shots Direct Goal"},

    {   "Desc" : "Saves Spin",
        "Multikey" : ["ST_GK_DIRECT_GOAL_SAVES", "ST_GK_DIRECT_GOAL_SHOTS"],
            "Layout" : "@1/@2"},

    {"Key":"ST_GK_P6M_SAVES","Desc":"Saves P6M"},
    {"Key":"ST_GK_P6M_SHOTS","Desc":"Shots P6M"},

    {   "Desc" : "Saves P6M",
        "Multikey" : ["ST_GK_P6M_SAVES", "ST_GK_P6M_SHOTS"],
            "Layout" : "@1/@2"},


    {"Key":"ST_ASSISTS","Desc":"Assists"},
    {"Key":"ST_STEALS","Desc":"Steals"},
    {"Key":"ST_BLOCKED_SHOTS","Desc":"Blocked Shots"},
    {"Key":"ST_RECEIVED_6M","Desc":"Received 6m Fouls"},
    {"Key":"ST_PENALTY_FOULS","Desc":"Penalty Fouls"},
    {"Key":"ST_TURNOVERS","Desc":"Turnovers"},
    
    {"Key":"ST_TIMEOUT","Desc":"Timeout"},

    {"Key":"ST_COMP_GOALS_SHOTS","Desc":"Goal/Shots Composition"},
    {"Key":"ST_COMP_1PT_ALL_GOALS_SHOTS","Desc":"1Pt-All Goals/Shots Composition"},
    {"Key":"ST_COMP_1PT_SPIN_GOALS_SHOTS","Desc":"1Pt Spin Goals/Shots Composition"},
    {"Key":"ST_COMP_SPIN_GOALS_SHOTS","Desc":"Spin Goals/Shots Composition"},
    {"Key":"ST_COMP_INFLIGHT_GOALS_SHOTS","Desc":"In-Flight Goals/Shots Composition"},
    {"Key":"ST_COMP_SPECIALIST_GOALS_SHOTS","Desc":"Specialist Goals/Shots Composition"},
    {"Key":"ST_COMP_DIRECT_GOALS_SHOTS","Desc":"Direct Goals/Shots Composition"},
    {"Key":"ST_COMP_P6M_GOALS_SHOTS","Desc":"Penalty 6m Goals/Shots Composition"},
    {"Key":"ST_GK_COMP_SAVES_SHOTS","Desc":"Saves/Shots Composition"},
    {"Key":"ST_GK_COMP_1PT_ALL_SAVES_SHOTS","Desc":"1Pt All Saves/Shots Composition"},
    {"Key":"ST_GK_COMP_1PT_SPIN_SAVES_SHOTS","Desc":"1Pt Spin Saves/Shots Composition"},
    {"Key":"ST_GK_COMP_SPIN_SAVES_SHOTS","Desc":"Spin Saves/Shots Composition"},
    {"Key":"ST_GK_COMP_INFLIGHT_SAVES_SHOTS","Desc":"In-Flight Saves/Shots Composition"},
    {"Key":"ST_GK_COMP_SPECIALIST_SAVES_SHOTS","Desc":"Specialist Saves/Shots Composition"},
    {"Key":"ST_GK_COMP_DIRECT_SAVES_SHOTS","Desc":"Direct Goals Saves/Shots Composition"},
    {"Key":"ST_GK_COMP_P6M_SAVES_SHOTS","Desc":"P6M Saves/Shots Composition"}

]
//- BVB
