<svg width="202" height="102" viewBox="0 0 202 102" fill="none" xmlns="http://www.w3.org/2000/svg">
<rect x="0.699463" width="68.7952" height="69.1298" transform="matrix(0.699463 -0.714669 0.699463 0.714669 51.2409 51.3803)" stroke="white" stroke-opacity="0.1"/>
<rect x="0.699463" width="32.9259" height="33.0886" transform="matrix(0.699463 -0.714669 0.699463 0.714669 76.3907 51.6553)" stroke="white" stroke-opacity="0.1"/>
<path d="M66.4255 1.06274L24.9362 51.5435L66.4255 101" stroke="white" stroke-opacity="0.1" stroke-linecap="round"/>
<path d="M162.17 101L201 55.8913M162.17 1.06272L201 47.1956" stroke="white" stroke-opacity="0.1" stroke-linecap="round"/>
<path d="M38.766 1.06329L1 47.1962M38.766 101.001L1 55.8919" stroke="white" stroke-opacity="0.1" stroke-linecap="round"/>
<path d="M134.511 101L176 50.5192L134.511 1.06272" stroke="white" stroke-opacity="0.1" stroke-linecap="round"/>
</svg>
