<svg width="250" height="250" viewBox="0 0 250 250" fill="none" xmlns="http://www.w3.org/2000/svg">
<rect width="250" height="250" fill="white"/>
<path d="M115.824 76.5794C115.824 81.8689 111.536 86.1582 106.246 86.1582C100.956 86.1582 96.668 81.8689 96.668 76.5794C96.668 71.2898 100.956 67.0005 106.246 67.0005C111.536 67.0005 115.824 71.2898 115.824 76.5794Z" fill="#005CB1"/>
<path d="M116.699 123.729L54.5234 175.219V187.879L116.699 123.729Z" fill="#005CB1"/>
<path d="M46.8745 190.147C46.8745 193.379 44.2543 196 41.0216 196C37.79 196 35.1699 193.379 35.1699 190.147C35.1699 186.916 37.79 184.294 41.0216 184.294C44.2543 184.294 46.8745 186.916 46.8745 190.147Z" fill="#005CB1"/>
<path d="M173.612 123.729L170.969 146.749L220.05 184.322L173.612 123.729Z" fill="#005CB1"/>
<path d="M155.339 105.652L136.967 154.026L159.106 189.457L155.339 105.652Z" fill="#005CB1"/>
<path d="M127.597 88.3435L106.248 97.8099L99.6797 137.824L127.597 88.3435Z" fill="#005CB1"/>
<path d="M131.242 78.2222L138.108 94.4156L125.518 117.395L150.208 97.809" fill="#005CB1"/>
</svg>
