<svg width="964" height="105" viewBox="0 0 964 105" fill="none" xmlns="http://www.w3.org/2000/svg">
<path d="M32.4591 42.0983H45.7511C47.3244 42.0983 48.6617 41.4809 49.7644 40.2423C50.8671 39.0063 51.4177 37.4209 51.4177 35.4863C51.3724 33.9583 50.8324 32.6769 49.7977 31.6409C48.7631 30.6063 47.5951 30.0889 46.2911 30.0889H32.4591V42.0983ZM16.4697 90.2556C12.1071 90.1649 8.36307 88.5356 5.23773 85.3636C2.11107 82.1929 0.548401 78.4036 0.548401 73.9956V19.0249C0.548401 15.5156 1.21107 12.4916 2.53907 9.95161C3.86573 7.41028 5.71907 5.47561 8.1044 4.14895C10.4871 2.82228 13.3671 2.15828 16.7404 2.15828H47.0324C53.3737 2.15828 58.9737 3.13695 63.8311 5.09295C68.6884 7.04895 72.6697 9.88228 75.7724 13.5943C78.8764 17.3049 81.0351 21.7916 82.2497 27.0529C82.9684 30.2916 83.3284 33.1929 83.3284 35.7569C83.3284 44.9769 80.2031 52.3303 73.9511 57.8183L73.4111 58.4249L70.2404 60.9209L68.2844 62.4049L80.0231 77.9903C82.3177 81.0036 83.4644 84.3769 83.4644 88.1089C83.4644 90.5849 82.8897 92.9569 81.7431 95.2276C80.5977 97.4996 78.9204 99.4449 76.7164 101.064C73.8377 103.132 70.8017 104.168 67.6084 104.168C61.8511 104.168 56.9724 101.109 52.9684 94.9916L32.3244 64.3623V74.4009C32.3244 77.3689 31.6164 80.0463 30.2004 82.4303C28.7831 84.8143 26.8817 86.7129 24.4991 88.1303C22.1137 89.5463 19.4391 90.2556 16.4697 90.2556" fill="white"/>
<path d="M118.434 52.3535C118.434 56.8055 119.39 60.8535 121.3 64.4962C123.212 68.1402 125.775 70.9628 128.992 72.9642C132.207 74.9655 135.727 75.9655 139.551 75.9655C140.9 75.9655 142.294 75.8308 143.734 75.5615C146.296 75.0215 148.612 74.0775 150.683 72.7282C152.751 71.3788 154.584 69.6695 156.182 67.6002C157.778 65.5322 159.003 63.2268 159.858 60.6855C160.711 58.1455 161.139 55.4122 161.139 52.4882C161.139 51.0948 161.006 49.6095 160.736 48.0348C160.06 44.1228 158.744 40.7482 156.788 37.9148C154.831 35.0815 152.37 32.8548 149.4 31.2362C146.432 29.6175 143.194 28.8082 139.686 28.8082C135.772 28.8082 132.196 29.8082 128.959 31.8108C125.72 33.8122 123.156 36.6335 121.267 40.2762C119.378 43.9202 118.434 47.9455 118.434 52.3535ZM96.0349 81.0935C94.0109 78.2162 92.3122 75.1682 90.9416 71.9522C89.5696 68.7375 88.5349 65.4988 87.8376 62.2375C87.1402 58.9762 86.7936 55.6828 86.7936 52.3535C86.7936 49.1148 87.1402 45.8548 87.8376 42.5708C88.5349 39.2882 89.5802 36.0162 90.9749 32.7548C92.3696 29.4935 94.0549 26.4468 96.0349 23.6135C99.2736 18.8908 103.186 14.8202 107.775 11.4015C112.362 7.98418 117.388 5.36284 122.852 3.54284C128.318 1.72017 133.928 0.80951 139.686 0.80951C144.004 0.80951 148.264 1.32685 152.47 2.36151C156.676 3.39618 160.7 4.91484 164.547 6.91484C168.392 8.91617 171.9 11.3122 175.071 14.1002C178.242 16.8895 181.019 20.0602 183.404 23.6135C189.564 32.5188 192.647 42.0988 192.647 52.3535C192.647 57.4375 191.859 62.4175 190.286 67.2975C188.711 72.1775 186.416 76.7748 183.404 81.0935C181.019 84.5575 178.184 87.7388 174.903 90.6402C171.619 93.5402 168.167 95.9362 164.547 97.8255C160.926 99.7148 156.956 101.211 152.639 102.312C148.322 103.414 144.004 103.964 139.686 103.964C133.928 103.964 128.318 103.064 122.852 101.266C117.388 99.4668 112.351 96.8362 107.74 93.3722C103.13 89.9095 99.2282 85.8162 96.0349 81.0935" fill="white"/>
<path d="M204.842 97.8925C201.334 95.7339 198.938 93.5979 197.657 91.4832C196.374 89.3685 195.734 86.6712 195.734 83.3872C195.869 80.3739 196.634 77.8099 198.027 75.6965C200.637 71.8285 203.921 69.8939 207.878 69.8939C209.497 69.8939 211.117 70.0752 212.735 70.4339L218.809 72.0525L224.339 73.4699L228.321 74.4139L229.805 74.8192C230.793 74.9539 231.581 75.0885 232.166 75.2245C234.009 75.5392 235.629 75.6965 237.023 75.6965C238.462 75.6965 239.745 75.4939 240.869 75.0885C242.487 74.5952 243.59 74.1005 244.175 73.6045C245.029 72.9299 245.457 72.1432 245.457 71.2432C245.457 70.2539 244.985 69.4672 244.039 68.8819C243.859 68.7925 243.499 68.6579 242.961 68.4765L240.329 67.5325L238.575 66.9939L231.221 65.1712L229.805 64.9019L220.697 62.2712C215.703 60.9205 211.477 59.1672 208.013 57.0072C204.279 54.5792 201.39 51.4539 199.343 47.6312C197.297 43.8085 196.274 39.6245 196.274 35.0819C196.274 31.4392 196.959 27.8192 198.333 24.2192C199.703 20.6219 201.738 17.3619 204.438 14.4379C207.45 11.1099 211.295 8.32054 215.974 6.07121C220.651 3.82321 225.959 2.33787 231.897 1.61787C234.234 1.34854 236.641 1.21387 239.115 1.21387C244.242 1.21387 249.167 1.88987 253.89 3.23787C259.107 4.81254 262.986 6.57787 265.527 8.53387C268.067 10.4912 269.766 12.9312 270.622 15.8539C271.07 17.6539 271.295 19.2725 271.295 20.7112C271.295 23.5899 270.554 26.0645 269.07 28.1325C267.721 30.1125 266.178 31.5739 264.449 32.5192C262.715 33.4632 260.659 33.9352 258.275 33.9352C255.755 33.9352 252.901 33.4859 249.707 32.5859L248.627 32.1805L244.647 30.8992L242.961 30.4939L239.115 29.5499L237.159 29.0779L235.81 28.8085C235.539 28.7632 235.279 28.7299 235.033 28.7059C234.786 28.6845 234.437 28.6725 233.987 28.6725C231.423 28.6725 229.67 29.0565 228.726 29.8192C227.915 30.4939 227.511 31.2819 227.511 32.1805C227.511 32.7659 227.781 33.2605 228.321 33.6645C228.814 34.0259 229.558 34.3392 230.546 34.6099L233.178 35.3525L234.122 35.6219L236.889 36.2965L241.477 37.3752L250.583 40.0059C255.35 41.4019 259.355 42.9312 262.593 44.5952C265.066 45.8552 267.259 47.3712 269.17 49.1485C271.082 50.9259 272.702 52.9152 274.029 55.1192C275.354 57.3232 276.333 59.5952 276.962 61.9325C277.593 64.2725 277.907 66.7245 277.907 69.2872C277.907 76.6179 275.321 83.3432 270.149 89.4592C262.233 99.0392 250.539 103.83 235.067 103.83C233.897 103.83 231.918 103.738 229.129 103.559C218.201 102.929 210.105 101.041 204.842 97.8925Z" fill="white"/>
<path d="M322.298 60.3139H337.209L329.72 33.5312L322.298 60.3139ZM289.848 102.751C286.744 101.401 284.349 99.5232 282.662 97.1179C280.976 94.7112 280.133 91.9326 280.133 88.7846C280.133 86.4472 280.74 83.5899 281.954 80.2166L305.702 18.8912C307.905 13.2686 311.11 8.93924 315.316 5.90324C319.521 2.86724 324.322 1.34857 329.72 1.34857C335.161 1.34857 339.985 2.86724 344.19 5.90324C348.397 8.93924 351.601 13.2686 353.805 18.8912L377.553 80.2166C378.768 83.7699 379.376 86.6259 379.376 88.7846C379.376 91.9326 378.532 94.7112 376.845 97.1179C375.158 99.5232 372.764 101.401 369.66 102.751C367.5 103.695 365.297 104.167 363.048 104.167C359.854 104.167 356.897 103.154 354.177 101.131C351.454 99.1072 349.442 96.2966 348.138 92.6979L346.586 88.1099H313.056L311.369 92.6979C310.156 96.2059 308.188 98.9952 305.465 101.063C302.744 103.133 299.742 104.167 296.46 104.167C294.21 104.167 292.006 103.695 289.848 102.751" fill="white"/>
<path d="M415.754 42.0983H429.045C430.619 42.0983 431.957 41.4809 433.059 40.2423C434.161 39.0063 434.713 37.4209 434.713 35.4863C434.667 33.9583 434.127 32.6769 433.093 31.6409C432.058 30.6063 430.889 30.0889 429.585 30.0889H415.754V42.0983ZM399.765 89.2436C395.402 89.1529 391.657 87.5236 388.531 84.3516C385.405 81.1809 383.843 77.3929 383.843 72.9849V19.0249C383.843 15.5156 384.506 12.4916 385.833 9.95161C387.159 7.41028 389.014 5.47561 391.399 4.14895C393.782 2.82228 396.661 2.15828 400.035 2.15828H430.327C436.669 2.15828 442.269 3.13695 447.125 5.09295C451.983 7.04895 455.963 9.88228 459.067 13.5943C462.171 17.3049 464.329 21.7916 465.545 27.0529C466.262 30.2916 466.623 33.1929 466.623 35.7569C466.623 44.9769 463.498 52.3303 457.246 57.8183L456.706 58.4249L453.535 60.9209L451.578 62.4049L463.317 77.9903C465.611 81.0036 466.758 84.3769 466.758 88.1089C466.758 90.5849 466.185 92.9569 465.037 95.2276C463.891 97.4996 462.215 99.4449 460.011 101.064C457.133 103.132 454.097 104.168 450.903 104.168C445.146 104.168 440.267 101.109 436.263 94.9916L415.619 64.3623V73.3889C415.619 76.3569 414.911 79.0356 413.494 81.4183C412.078 83.8023 410.177 85.7023 407.794 87.1183C405.409 88.5356 402.733 89.2436 399.765 89.2436" fill="white"/>
<path d="M476.354 99.3067C473.206 96.1587 471.632 92.2907 471.632 87.7027V52.6307C471.632 48.1333 473.193 44.344 476.321 41.2613C479.445 38.1827 483.236 36.6413 487.688 36.6413C490.521 36.6413 493.164 37.3493 495.617 38.7667C498.066 40.1827 500.001 42.128 501.417 44.6013C502.834 47.076 503.542 47.9147 503.542 50.8813V87.9733C503.542 90.088 503.148 92.1453 502.361 94.1453C501.576 96.148 500.416 97.9147 498.889 99.4427C495.74 102.456 492.006 103.963 487.688 103.963C483.101 103.963 479.324 102.411 476.354 99.3067Z" fill="white"/>
<path d="M538.874 52.3535C538.874 56.8055 539.83 60.8535 541.741 64.4962C543.653 68.1402 546.216 70.9628 549.433 72.9642C552.648 74.9655 556.169 75.9655 559.992 75.9655C561.341 75.9655 562.734 75.8308 564.174 75.5615C566.737 75.0215 569.053 74.0775 571.124 72.7282C573.19 71.3788 575.025 69.6695 576.622 67.6002C578.218 65.5322 579.444 63.2268 580.298 60.6855C581.152 58.1455 581.58 55.4122 581.58 52.4882C581.58 51.0948 581.446 49.6095 581.177 48.0348C580.501 44.1228 579.185 40.7482 577.229 37.9148C575.272 35.0815 572.809 32.8548 569.841 31.2362C566.873 29.6175 563.634 28.8082 560.125 28.8082C556.214 28.8082 552.637 29.8082 549.4 31.8108C546.161 33.8122 543.597 36.6335 541.708 40.2762C539.818 43.9202 538.874 47.9455 538.874 52.3535ZM516.476 81.0935C514.452 78.2162 512.753 75.1682 511.382 71.9522C510.01 68.7375 508.974 65.4988 508.278 62.2375C507.581 58.9762 507.234 55.6828 507.234 52.3535C507.234 49.1148 507.581 45.8548 508.278 42.5708C508.974 39.2882 510.021 36.0162 511.416 32.7548C512.809 29.4935 514.496 26.4468 516.476 23.6135C519.714 18.8908 523.626 14.8202 528.216 11.4015C532.802 7.98418 537.829 5.36284 543.293 3.54284C548.758 1.72017 554.368 0.80951 560.125 0.80951C564.445 0.80951 568.705 1.32685 572.91 2.36151C577.117 3.39618 581.141 4.91484 584.988 6.91484C588.833 8.91617 592.341 11.3122 595.512 14.1002C598.682 16.8895 601.458 20.0602 603.845 23.6135C610.006 32.5188 613.086 42.0988 613.086 52.3535C613.086 57.4375 612.298 62.4175 610.726 67.2975C609.15 72.1775 606.856 76.7748 603.845 81.0935C601.458 84.5575 598.625 87.7388 595.344 90.6402C592.06 93.5402 588.608 95.9362 584.988 97.8255C581.366 99.7148 577.397 101.211 573.078 102.312C568.762 103.414 564.445 103.964 560.125 103.964C554.368 103.964 548.758 103.064 543.293 101.266C537.829 99.4668 532.792 96.8362 528.181 93.3722C523.57 89.9095 519.669 85.8162 516.476 81.0935" fill="white"/>
<path d="M680.579 66.1003C677.564 69.519 674.44 72.6003 671.2 75.343H686.381C688.853 75.343 691.159 75.9616 693.295 77.199C695.432 78.4363 697.117 80.111 698.355 82.2256C699.592 84.3403 700.211 86.7003 700.211 89.3096C700.211 91.8283 699.604 94.1563 698.389 96.291C697.173 98.4283 695.532 100.127 693.464 101.386C691.395 102.646 689.079 103.274 686.515 103.274H635.848C631.531 103.274 628.201 102.352 625.864 100.508C622.491 97.8096 620.803 94.347 620.803 90.119C620.803 86.2056 622.4 82.5856 625.595 79.2563L642.325 62.3896C646.463 58.0723 649.679 54.6096 651.973 52.0003L660.405 42.3523L663.037 39.3176L664.453 37.495C664.544 37.4056 664.859 36.9563 665.399 36.1456C666.028 35.067 666.343 34.0536 666.343 33.1096C666.343 31.3563 665.151 30.0523 662.767 29.1976C661.867 29.0176 661.192 28.927 660.743 28.927C658.764 28.927 657.291 29.163 656.324 29.6363C655.357 30.1083 654.153 31.1083 652.716 32.6376L652.58 32.975L648.937 37.3603C644.528 42.8923 639.649 45.659 634.297 45.659C631.283 45.659 628.472 44.6923 625.864 42.7576C622.175 39.655 620.331 35.6976 620.331 30.883C620.331 27.4203 621.353 23.9123 623.4 20.359C625.447 16.8056 628.584 13.4563 632.812 10.3056C636.949 7.29362 641.212 5.11096 645.597 3.76296C649.983 2.41229 654.919 1.73895 660.405 1.73895C665.803 1.73895 670.975 2.52563 675.923 4.10029C680.6 5.54029 684.637 7.65362 688.033 10.4416C691.428 13.231 694.015 16.503 695.792 20.2576C697.567 24.0136 698.456 28.0056 698.456 32.2336C698.456 38.8456 696.32 45.299 692.048 51.5963C688.944 56.4523 685.12 61.2896 680.579 66.1003Z" fill="white"/>
<path d="M733.809 52.2826C733.809 53.4799 733.898 55.1426 734.08 57.2706C735.608 69.1546 739.858 75.5613 746.83 76.4933C750.114 76.4933 752.789 75.7506 754.858 74.2639C756.928 72.7799 758.66 70.3519 760.054 66.9813C760.773 65.1639 761.29 63.6133 761.606 62.3266C762.325 58.4253 762.685 55.0093 762.685 52.0826C762.685 47.6493 762.065 43.6693 760.83 40.1439C759.592 36.6186 758.018 33.8479 756.108 31.8306C754.194 29.8119 752.25 28.6706 750.272 28.4039C746.898 28.4039 744.222 29.0919 742.242 30.4666C740.264 31.8399 738.42 34.2359 736.71 37.6493C734.777 41.7733 733.809 46.6519 733.809 52.2826ZM704.936 61.7946C704.485 58.3359 704.26 55.1653 704.26 52.2826C704.26 49.4453 704.485 46.2959 704.936 42.8373C706.193 34.6786 708.689 27.6506 712.422 21.7533C716.157 15.8559 720.9 11.1773 726.658 7.71859C733.809 3.46259 741.029 1.33325 748.316 1.33325C755.466 1.33325 762.662 3.46259 769.904 7.71859C775.661 11.2226 780.394 15.9559 784.106 21.9199C787.816 27.8839 790.254 34.8559 791.426 42.8373C791.874 45.3213 792.1 48.4693 792.1 52.2826C792.1 56.0066 791.874 59.1773 791.426 61.7946C790.614 67.1586 789.222 72.0599 787.242 76.4933C785.262 80.9279 782.834 84.8186 779.956 88.1666C777.077 91.5146 773.725 94.3413 769.904 96.6466C762.708 100.903 755.51 103.032 748.316 103.032C741.029 103.032 733.809 100.903 726.658 96.6466C720.856 93.1879 716.121 88.5319 712.457 82.6786C708.79 76.8253 706.282 69.8653 704.936 61.7946" fill="white"/>
<path d="M855.687 65.0886C852.672 68.5072 849.548 71.5886 846.308 74.3312H861.489C863.961 74.3312 866.267 74.9499 868.403 76.1872C870.54 77.4246 872.225 79.0992 873.463 81.2139C874.7 83.3286 875.319 85.6899 875.319 88.2979C875.319 90.8166 874.712 93.1446 873.497 95.2792C872.281 97.4166 870.64 99.1152 868.572 100.374C866.503 101.634 864.187 102.262 861.623 102.262H810.956C806.639 102.262 803.309 101.341 800.972 99.4966C797.599 96.7979 795.911 93.3352 795.911 89.1072C795.911 85.1939 797.508 81.5739 800.703 78.2446L817.433 61.3779C821.571 57.0606 824.787 53.5979 827.081 50.9886L835.513 41.3406L838.145 38.3059L839.561 36.4832C839.652 36.3939 839.967 35.9446 840.507 35.1339C841.136 34.0552 841.451 33.0419 841.451 32.0979C841.451 30.3446 840.259 29.0406 837.875 28.1859C836.975 28.0059 836.3 27.9152 835.851 27.9152C833.872 27.9152 832.399 28.1512 831.432 28.6246C830.465 29.0966 829.261 30.0966 827.824 31.6259L827.688 31.9632L824.045 36.3486C819.637 41.8806 814.757 44.6472 809.405 44.6472C806.391 44.6472 803.58 43.6806 800.972 41.7459C797.283 38.6432 795.439 34.6859 795.439 29.8712C795.439 26.4086 796.461 22.9006 798.508 19.3472C800.555 15.7939 803.692 12.4446 807.92 9.29391C812.057 6.28191 816.32 4.09924 820.707 2.75124C825.091 1.40058 830.027 0.727235 835.513 0.727235C840.911 0.727235 846.083 1.51391 851.031 3.08857C855.708 4.52857 859.745 6.6419 863.141 9.4299C866.536 12.2192 869.123 15.4912 870.9 19.2459C872.675 23.0019 873.564 26.9939 873.564 31.2219C873.564 37.8339 871.428 44.2872 867.156 50.5846C864.052 55.4406 860.228 60.2779 855.687 65.0886Z" fill="white"/>
<path d="M943.464 65.0886C940.451 68.5072 937.325 71.5886 934.087 74.3312H949.267C951.74 74.3312 954.045 74.9499 956.181 76.1872C958.319 77.4246 960.004 79.0992 961.241 81.2139C962.479 83.3286 963.097 85.6899 963.097 88.2979C963.097 90.8166 962.491 93.1446 961.275 95.2792C960.06 97.4166 958.419 99.1152 956.351 100.374C954.28 101.634 951.965 102.262 949.401 102.262H898.735C894.417 102.262 891.088 101.341 888.749 99.4966C885.377 96.7979 883.689 93.3352 883.689 89.1072C883.689 85.1939 885.285 81.5739 888.48 78.2446L905.212 61.3779C909.349 57.0606 912.565 53.5979 914.86 50.9886L923.292 41.3406L925.924 38.3059L927.34 36.4832C927.429 36.3939 927.744 35.9446 928.284 35.1339C928.915 34.0552 929.229 33.0419 929.229 32.0979C929.229 30.3446 928.037 29.0406 925.653 28.1859C924.753 28.0059 924.079 27.9152 923.629 27.9152C921.651 27.9152 920.177 28.1512 919.211 28.6246C918.243 29.0966 917.04 30.0966 915.601 31.6259L915.465 31.9632L911.824 36.3486C907.415 41.8806 902.536 44.6472 897.183 44.6472C894.168 44.6472 891.359 43.6806 888.749 41.7459C885.06 38.6432 883.216 34.6859 883.216 29.8712C883.216 26.4086 884.24 22.9006 886.287 19.3472C888.332 15.7939 891.471 12.4446 895.699 9.29391C899.836 6.28191 904.099 4.09924 908.484 2.75124C912.869 1.40058 917.804 0.727235 923.292 0.727235C928.689 0.727235 933.861 1.51391 938.809 3.08857C943.487 4.52857 947.523 6.6419 950.92 9.4299C954.315 12.2192 956.901 15.4912 958.679 19.2459C960.453 23.0019 961.343 26.9939 961.343 31.2219C961.343 37.8339 959.207 44.2872 954.935 50.5846C951.829 55.4406 948.007 60.2779 943.464 65.0886Z" fill="white"/>
<path d="M502.647 17.6061C502.647 26.2888 495.608 33.3288 486.924 33.3288C478.241 33.3288 471.201 26.2888 471.201 17.6061C471.201 8.92346 478.241 1.88347 486.924 1.88347C495.608 1.88347 502.647 8.92346 502.647 17.6061Z" fill="white"/>
</svg>
